[
    {
        "id": 1,
        "name": "Ten TK 0",
        "price": "Tốt"
    },
    {
        "id": 1,
        "name": "Ten TK 1",
        "price": "Tốt"
    },
    {
        "id": 2,
        "name": "Ten TK 2",
        "price": "Tốt"
    },
    {
        "id": 3,
        "name": "Ten TK 3",
        "price": "Tốt"
    },
    {
        "id": 4,
        "name": "Ten TK 4",
        "price": "Tốt"
    },
    {
        "id": 5,
        "name": "Ten TK 5",
        "price": "Tốt"
    },
    {
        "id": 6,
        "name": "Ten TK 6",
        "price": "Tốt"
    },
    {
        "id": 7,
        "name": "Ten TK 7",
        "price": "Tốt"
    },
    {
        "id": 8,
        "name": "Ten TK 8",
        "price": "Tốt"
    },
    {
        "id": 9,
        "name": "Ten TK 9",
        "price": "Tốt"
    },
    {
        "id": 10,
        "name": "Ten TK 10",
        "price": "Tốt"
    },
    {
        "id": 11,
        "name": "Ten TK 11",
        "price": "Tốt"
    },
    {
        "id": 12,
        "name": "Ten TK 12",
        "price": "Tốt"
    },
    {
        "id": 13,
        "name": "Ten TK 13",
        "price": "Tốt"
    },
    {
        "id": 14,
        "name": "Ten TK 14",
        "price": "Tốt"
    },
    {
        "id": 15,
        "name": "Ten TK 15",
        "price": "Tốt"
    },
    {
        "id": 16,
        "name": "Ten TK 16",
        "price": "Tốt"
    },
    {
        "id": 17,
        "name": "Ten TK 17",
        "price": "Tốt"
    },
    {
        "id": 18,
        "name": "Ten TK 18",
        "price": "Tốt"
    },
    {
        "id": 19,
        "name": "Ten TK 19",
        "price": "Tốt"
    },
    {
        "id": 20,
        "name": "Ten TK 20",
        "price": "Tốt"
    }
]